Chapter 1 Loading and Formatting Data | Practical R Applications in Water Resources
…
df

## # A tibble: 122 x 12
##    `RFA(Sample Set… Segment `Station ID` `Station Descri… `Parameter Code`
##    <chr>            <chr>   <chr>        <chr>            <chr>           
##  1 1549521          1501    12515        TRES PALACIOS C… 31701           
##  2 R201391          1501    12515        TRES PALACIOS C… 31701           
##  3 R212883          1501    12515        TRES PALACIOS C… 31701           
##  4 L080888          1501    12515        TRES PALACIOS C… 31701           
##  5 L083338          1501    12515        TRES PALACIOS C… 31701           
##  6 L086380          1501    12515        TRES PALACIOS C… 31701           
##  7 L086923          1501    12515        TRES PALACIOS C… 31701           
##  8 L087695          1501    12515        TRES PALACIOS C… 31701           
##  9 L092047          1501    12515        TRES PALACIOS C… 31701           
## 10 10231848         1501    12515        TRES PALACIOS C… 31701           
## # … with 112 more rows, and 7 more variables: `Parameter Description` <chr>,
## #   Value <dbl>, `End Date` <date>, `Submitting Entity` <chr>, `Collecting
## #   Entity` <chr>, `Monitoring Type` <chr>, Comments <chr>
…
